<?xml version="1.0" encoding="UTF-8"?>
<!DOCTYPE svg PUBLIC "-//W3C//DTD SVG 1.1//EN" "http://www.w3.org/Graphics/SVG/1.1/DTD/svg11.dtd">
<!-- Creator: CorelDRAW 2018 (64 Bit) -->
<svg xmlns="http://www.w3.org/2000/svg" xml:space="preserve" width="70.6064mm" height="56.5692mm" version="1.1" style="shape-rendering:geometricPrecision; text-rendering:geometricPrecision; image-rendering:optimizeQuality; fill-rule:evenodd; clip-rule:evenodd"
viewBox="0 0 1420.49 1138.08"
 xmlns:xlink="http://www.w3.org/1999/xlink">
 <defs>
  <style type="text/css">
   <![CDATA[
    .fil0 {fill:#135C13}
    .fil2 {fill:#23AD22}
    .fil1 {fill:black;fill-opacity:0.501961}
   ]]>
  </style>
 </defs>
 <g id="Camada_x0020_1">
  <metadata id="CorelCorpID_0Corel-Layer"/>
  <g id="_1145166347728">
   <polygon class="fil0" points="-0,853.17 284.92,853.17 284.92,1138.08 "/>
   <polygon class="fil1" points="284.92,1138.08 1420.49,1138.08 1328.23,243.36 852.7,0 192.65,243.36 "/>
   <polygon class="fil2" points="284.92,1138.08 1420.49,1138.08 1420.49,243.36 852.7,0 284.92,243.36 "/>
  </g>
 </g>
</svg>
