<?xml version="1.0" encoding="UTF-8"?>
<!DOCTYPE svg PUBLIC "-//W3C//DTD SVG 1.1//EN" "http://www.w3.org/Graphics/SVG/1.1/DTD/svg11.dtd">
<!-- Creator: CorelDRAW 2018 (64 Bit) -->
<svg xmlns="http://www.w3.org/2000/svg" xml:space="preserve" width="187.145mm" height="124.816mm" version="1.1" style="shape-rendering:geometricPrecision; text-rendering:geometricPrecision; image-rendering:optimizeQuality; fill-rule:evenodd; clip-rule:evenodd"
viewBox="0 0 3189.51 2127.24"
 xmlns:xlink="http://www.w3.org/1999/xlink">
 <defs>
  <style type="text/css">
   <![CDATA[
    .fil2 {fill:#16A69D}
    .fil4 {fill:#23AD22}
    .fil1 {fill:#663202}
    .fil3 {fill:#A8DB24}
    .fil0 {fill:white}
   ]]>
  </style>
 </defs>
 <g id="Camada_x0020_1">
  <metadata id="CorelCorpID_0Corel-Layer"/>
  <g id="_1146144499360">
   <path class="fil0" d="M735.72 0c406.33,0 735.72,329.39 735.72,735.72 0,182.1 -66.19,348.71 -175.78,477.18l1800.55 0c51.32,0 93.3,41.98 93.3,93.3l0 727.74c0,51.32 -41.98,93.3 -93.3,93.3l-2379.15 0c-51.31,0 -93.3,-41.98 -93.3,-93.3l0 -386.71 -284.63 -284.63 4.37 -4.37c-206.39,-130.31 -343.5,-360.39 -343.5,-622.51 0,-406.32 329.39,-735.72 735.72,-735.72z"/>
   <g>
    <path class="fil1" d="M826.15 1307.15c24.35,-10.55 35.88,25.76 15.33,35.42 -22.73,10.68 -43.41,-23.26 -15.33,-35.42zm354.77 -484.53c6.75,-14.33 19.51,-19.1 22.83,-33.87l-10.73 -5.14c-10.76,10.09 -27.44,35.1 -35.99,46.87 -31.94,43.91 -229.6,317.28 -244.77,329.15l9.47 -224.27 -25.28 -0.38 -9.17 49.72c-1.11,-14.95 1.59,-38.7 -4.35,-50.59l-34.86 -0.47 -5.43 101.1 -1.65 -101.72 -17.71 0.58 -3.01 34.88 -5.34 -36.83 -22.12 -0.47c-3.24,17.47 -5.84,249.64 -7.31,292.47 -0.92,26.76 0.97,119.24 -11.77,136.89l-54.4 76.4c-2.48,4.99 -1.26,-1.49 -1.57,5.48 -1.1,24.3 28.47,-21.49 32.79,-25.37 -4.73,17.36 -17.91,24.14 -11.52,38.87 13.63,0.92 14.23,-7.25 24.69,-13.19 -1.02,6.81 -10.69,28.96 -5.55,33.35 8.33,7.1 25.31,-22.4 34.46,-35.7l90.7 -125.26c25,-34.19 363.27,-481.34 370.23,-496.41l-14.33 -7.96c-8.55,18.02 -33.26,48.93 -45.55,66.1 7.37,-19.97 26.3,-42.14 34.07,-62.34l-12.43 8.43c5.46,-11.99 8.06,-6.33 8.62,-20.09 -23.85,-8.18 -21.93,8.91 -43.01,19.74z"/>
    <path class="fil1" d="M1515.17 1526.77c-6.45,-2.85 -71.01,-130.1 -78.35,-145.07l-70.01 -0.88 0.96 15.68 26.39 3.24 -25.94 3.76c1.8,10.04 -1.83,3.26 10.56,7.54 -18.86,3.52 -4.84,5.57 -19.97,7.59l-77.21 1.08c-34.69,0.53 -69.43,1.19 -104.86,1.48l-0.4 20.72 16.15 1.58 -16.51 7.06c-1.05,14.22 -2.78,10.02 7.25,16.61 -10.66,6.61 -4.76,-3.91 -8.77,9.4 -1.38,4.6 -0.84,10.49 -0.74,16.44l34.09 -4.21 -6.65 181.05 20.23 0.01c0.52,-16.59 -1.84,-69.77 4.22,-81.89 0.17,12.96 -1.62,75.4 6.17,82.03 9.96,-4.57 3.54,-10.96 9.57,-15.8l4.27 16.38 108.21 2.34c17.86,0.35 17.67,2.86 19.06,-14.38 -20.56,-0.64 -45.93,2.83 -64.35,-2.34l65.76 -2.71 9.46 -45.03 -109.95 12.7 1.18 -61.89 45.36 1.49 5.34 -24.11 -40.9 -1.87 41.61 -4.11 -0.5 -29.64 -73.84 9.48 0.13 -42.88c29.44,-4.4 106.43,6.84 117.98,-0.47 0.35,-14.11 -1.74,-12.31 -18.36,-12.26 15.25,-2.26 18.47,2.23 21.38,-9.88 -0.62,-0.4 -1.51,-0.76 -2,-0.92l-61.5 -6.02c17.56,-1.03 35.05,-0.61 52.32,-1.59 14.18,-0.8 29.34,-6.52 47.57,-8.11 0.86,29.04 5.53,16.14 12.68,34.5l-13.54 -8.37c0.08,15.01 -3.31,23.36 4.2,33.61 3.68,5.03 11.3,13.47 15.17,18.02 11.92,13.99 19.37,24.31 29.97,37.72 -8.27,-8.49 -40.35,-45.18 -50.35,-50.09l-6 142.18c-0.3,8.38 -0.71,16.67 -1.12,25.04l2.8 22.96c14.84,-1.62 7.28,1.35 13.84,-10.95 7.97,11.97 -4.13,8.37 11.07,10.09 3.46,-4.51 0.88,1.06 2.73,-6.1l0.89 -42.51 5.95 47.57 14.91 -0.05 -6.95 -114.53 41.72 50.9c0.54,-0.06 1.24,-0.61 1.47,-0.69 7.49,-2.66 4.27,-2.55 7.57,0.04 9.15,7.19 36.15,56.62 51.37,66.05l3.7 -28.05c1.61,23.66 -3.71,39.74 13.46,52.13l34.8 -299.9 -38.46 0.68 -16.36 158.85 5.43 -152.46c-1.99,-8.18 1.52,-0.96 -3.22,-6.35 -8.77,2.45 -9.91,6.25 -12.63,32.86l-0.71 -32.49 -17.6 0.24 -1.22 117.5z"/>
    <path class="fil1" d="M2576.57 1986.99l5.94 10.72c32.74,-2.24 29.45,-4.87 33.34,-26.59 1.22,-6.82 2.66,-14.01 3.97,-20.72 2.85,-14.67 5.57,-31.41 9.76,-43.17l-9.67 84.15c19.61,-1.69 12.77,3.94 22.4,-46.7 12.85,-67.57 13.14,-78.97 21.58,-142.48 2.3,-17.27 4.69,-10.48 7.77,-11.16l14.08 -84.22 -33.19 -4.39 -6.38 20.19c-6.61,-14.83 5.67,-16.59 -5.54,-23.15 -7.89,3.4 -4.3,-2.02 -7.48,11.92l-21.79 115 12.05 -99.55c5.85,-41.29 3.93,-24.75 -1.45,-31.29l14.91 -4.18 5.01 -34.66c6.38,41.52 -4.98,36.04 15.36,35.43 4.01,-4.74 1.38,0.37 3.41,-6.67 1.12,-3.87 0.85,-3.79 1,-7.79 0.78,-21.24 -5.62,-77.78 -4.34,-110.55l63.8 2.72 0.06 -27.77 -76.51 -4.74 76.72 -3.76c-1.33,-12.93 -0.38,-6.66 -11.94,-13.84 14.21,-6.3 11.94,0.71 12.29,-18.24l-96.33 7.57 1.74 -67.1c17.59,-0.69 117.89,9.18 130.59,3.04 0.57,-27.56 -6.08,-7.52 -30.22,-19.92l30.7 -1.07 1.06 -34.93 -210.62 5.86 0.69 25.75 53.54 1.39c-7.58,-2.36 -20.45,1.62 -29.07,2.83 -32.1,4.49 -21.35,1.29 -24.28,9.03l3.81 2.08c8.11,2.81 24.68,1.62 33.68,1.73l-37.08 5.39 0.74 31.97 31.58 -3.67 -7.53 224.97 15.73 -0.53 -0.2 -47.58c7.56,13.95 1.36,33 8.86,46.44 5.57,-3.45 1.54,-0.64 5.19,-6.29 0.41,-0.63 1.9,-2.75 2.12,-4.07 0.19,-1.14 0.58,-1.49 1,-2.16 8.56,42.08 -22.91,192.15 -27.88,240.05l-12.28 -52.45c-1.81,-9.3 -3.16,-16.33 -4.81,-25.38 -4.19,-22.95 -4.73,-15.84 -8.11,-22.38 -4.61,-8.94 -14.74,-90.21 -16.9,-107.82 -14.21,-1.98 -29.12,-0.39 -43.53,-0.15 -35.55,0.58 -30.71,-2.02 -32.13,7.71 5.36,1.62 5.81,0.5 10.08,1.26l12.37 3.8c-24.26,1.13 -25.4,-2.48 -26.16,22.34l41.8 -1.07c5.1,44.24 33.01,169.94 44.46,230.03 5.98,31.35 2.97,24.48 13.26,24.53 7.3,-8.91 -6.59,-49.85 -6.74,-64.18 0.71,10.57 13.76,46.08 17.48,61.07 4.36,-1.97 7.11,-4.8 8.06,-10.65 0.19,-1.15 0.43,-1.55 0.16,-1.94z"/>
    <path class="fil2" d="M716.67 607.89c-68.43,10.44 -124.37,68.56 -114.46,147.25 8.49,67.36 70.37,125.28 150.81,114.45 64.51,-8.68 122.41,-71.43 111.93,-148.05 -9.13,-66.76 -70.34,-125.54 -148.28,-113.65z"/>
    <path class="fil1" d="M829.32 2002.34c32.37,6.36 24.39,-2.49 28.63,-81.21 1.47,-27.37 0.14,-82.18 7.84,-103.54l4.25 183.66 32.39 -0.52 -0.65 -309.46c-12.49,-11.84 -125.36,-96.33 -136.31,-100.79 -2.94,70.43 -7.21,139.97 -12.09,208.84 -4.76,67.15 -14.5,143.03 -15.22,209.47l35.62 -2.92 8.86 -150.31 2.48 150.36 33.16 -2.67 5.47 -42.72c0.12,-1.14 0.54,-1.45 0.69,-2.13l4.87 43.95z"/>
    <path class="fil1" d="M819.93 1569.34c23.88,-12.01 36.17,25.09 17.07,34.63 -24.28,12.13 -42.52,-21.84 -17.07,-34.63zm-269.17 -204.59c-0.59,3.47 -7.42,-1.49 4.91,13.48 -9.07,-4.54 -7.13,-7.27 -16.34,-2.4 2.53,8.24 31.08,33.67 37.78,37.97 -14.17,-7.71 -30.86,-26.74 -45.84,-30.26l-8.33 8.89c7.63,12.88 189.26,143.68 206.36,156.49 37.66,28.2 68.57,53.52 103.79,78.96l77.89 57.62c1.7,1.36 32.33,28.89 26.37,7.01 -0.43,-1.57 -3.85,-5.41 -4.8,-6.34 -1.79,-1.75 -8.02,-6.46 -9.75,-7.62 10.52,3.41 15.65,8.59 25.9,8.8 0.91,-11.19 -2.67,-10.53 -7,-20.42 5.68,5.93 6.91,9.9 16.7,13.66l7.21 -8.59c-4.73,-9.1 -13.05,-11.8 -18.82,-17.1 -13.47,-12.37 2.71,-4 -11.43,-15.47 -21.5,-17.43 -31.46,-19.04 -31.77,-36.63 -1.44,-82.48 3.16,-214.85 4.57,-302.58 -11.45,8.62 -95.73,126.18 -112.36,148.84 -20.38,27.78 -22.35,19.18 -23.94,62.67 -14.03,-3.45 -40.97,-27.83 -55.69,-38.26l-110.61 -77.55c-17.74,-12.59 -44.35,-37.19 -54.82,-31.17z"/>
    <path class="fil2" d="M1093.05 379.37c14.82,19.96 33.86,34.24 56.51,68.34 56.71,85.39 89.95,168.14 91.78,281.91 13.89,4.2 83.88,2 105.08,1.96 7.69,-132.16 -57.48,-284.09 -141.77,-385.92 -12.06,-14.57 -25.08,-26.42 -36.54,-39.83 -8.93,2.2 -70.96,65.35 -75.06,73.54z"/>
    <path class="fil3" d="M788.21 127.49l-57.39 0 -0.13 105.24c128.56,6.61 219.88,31.98 317.65,108.52 9.38,7.35 26.34,23.47 33.96,27.48 9.28,-3.25 67.72,-61.35 72.95,-72.4 -14.42,-29.17 -119.45,-92.53 -157.39,-109.76 -46.12,-20.94 -95.91,-39.61 -149.56,-48.97 -11.48,-2 -17.46,-3.2 -28.83,-4.49 -5.85,-0.66 -9.31,-0.96 -14.67,-1.64l-16.59 -3.98z"/>
    <path class="fil3" d="M376.48 1095.38c-13.58,7.6 -35.75,34.2 -48.42,46.59 -28.51,27.88 -31.69,22.15 -0.38,50.15 29.4,26.29 68.8,56.83 105.8,76.86 76.21,41.25 195.33,85.74 286.45,79.02l-0.62 -104.47c-75.78,-6.06 -139.25,-18.93 -198.1,-48.29 -82.31,-41.05 -139.38,-97.52 -144.73,-99.86z"/>
    <path class="fil4" d="M719.47 127.49l-19.96 0c-8.54,3.55 -48.67,5.84 -62.52,8.26 -97.21,16.97 -175.14,49.47 -254.96,105.23 -19.13,13.36 -64.26,48.81 -76.99,66.43l52.75 54.72c6.45,6.26 11.77,10.69 17,18.55 15.49,-4.55 16.4,-12.56 35.75,-28.04 88.49,-70.77 184.32,-115.56 307.64,-118.68 3.81,-14.67 2.18,-87.33 1.31,-106.47z"/>
    <path class="fil4" d="M124.6 768.85c12.15,27.26 -7.19,165.92 134.77,350.44 9.84,12.78 26.58,28.53 32.42,38.98 11.57,-3.68 13.22,-8.88 21.57,-17.19 11.74,-11.67 49.33,-47.35 54.18,-55.89 -5.75,-10.7 -17.32,-20.89 -25.76,-31.86 -9.43,-12.27 -16,-20.55 -25.57,-35.09 -57.02,-86.62 -79.61,-163.91 -84.74,-275.04l-106.88 0.04 0 25.61z"/>
    <path class="fil2" d="M126.01 732.4l105.87 -1.45c-0.78,-71.65 18.31,-140.4 42.44,-196.45 11.86,-27.55 26.69,-53.02 42.24,-76.64 14.9,-22.64 50.42,-64.1 52.4,-67.41 -3.62,-6.54 -64.14,-68.32 -72.75,-72.96 -35.89,22.88 -97.65,128.22 -118.05,173.38 -31.3,69.29 -51.8,153.51 -52.15,241.54z"/>
    <path class="fil1" d="M2194.24 1489.31c-3.39,11.05 -6.06,22.03 -9.61,34.02 -6.26,21.14 -3.68,17.12 -25.63,17.3l-1.52 31.09 -5.15 -29.77c-11.26,-8.08 -12.03,2.56 -16.1,-9.49l-3.26 -82.3 69.99 -12.58 -0.11 57.84c-10.35,-11.03 -2.85,-8.2 -8.62,-6.11zm-83.31 152.46c0.99,13.11 -2.4,41.79 6.57,50.19 16.5,-2.01 3.04,0.3 11.66,-14.27l6 15.51 20.76 0.24 -2.22 -98.92c15.58,2.27 26.2,6.85 37.26,14.97 0.68,15.61 -0.16,26.98 -3.1,41.11 -5.4,25.9 -10.35,23.04 1.61,30.83 5.67,-7.95 5.09,-14.61 7.77,-20.87l0.47 25.28c5.83,3.61 11.3,6.15 17.6,7.34 12.44,2.35 10.64,-1.44 23.42,4.13l33.77 7.38c14.77,-19.26 18.58,-49.03 16.78,-78.44l-24.02 2.98 -2.16 19.71 -4.41 -18.61 -11.1 2c-3.85,6.18 -1.13,-1.83 -1.82,6.35l1.98 23.07 -27.09 6.55c1.51,-13.06 14.8,-40.63 19.83,-56.07 11.83,-36.33 10.08,-35.47 -3.74,-48.79 -3.91,-3.77 -1.33,-0.46 -4.49,-4.92l19.63 -10.33 3.16 -13.8c2.07,3.61 1.13,3.05 3.92,6.97l15.66 -10.85c-0.09,-33.55 -26.47,-114.53 -40.89,-138.21 -31.52,-6.27 -127.33,7.16 -163.71,10.93l-0.75 23.44 69.97 -5.53 -70.91 15.58c0.02,10.09 4.52,7.46 11.69,11.73 -6.6,1.96 -9.39,3.56 -13.54,6.63l-0.62 23.14 27.82 -6.12 -11.2 218.53 22.69 -0.1 3.09 -100.04c-2.46,10.6 1.73,39.04 2.65,51.27z"/>
    <path class="fil1" d="M2043.4 1411.02c-14.12,-8.46 -101.12,-29.37 -117.45,-18.59 0.55,0.39 0.96,1.28 1.26,1.56 7.94,7.43 43.43,17.04 53.95,19.54 -22.1,-0.7 -46.49,-12.81 -68.97,-10.33 -10.34,12.12 -20.53,21.36 -31.51,31.96 -20.94,20.21 -10.63,16.94 -13.2,50.78 -2.48,-10.17 -2.61,-22.36 -7.4,-29.38 -11.57,9.95 -2.56,61.48 -3.86,96.27l-8.62 -81.79c-19.15,11.52 -13.93,27.12 -11.36,52.87 2.04,20.36 4.09,40.34 7,59.66 3.28,21.78 14.57,96.52 22.41,113.15l15.9 -0.99 1.66 -24.96 7.36 22.5 112.55 -17.86 -3.23 16.51 31.56 -0.37 2.22 -16.33c5.08,19.34 -2.21,13.37 9.1,16.46 5.27,-3.18 5.27,-1.71 3.01,-19.75l-7.36 -75.77 24.39 1.93c0.48,-13.06 0.92,-11.48 -6.43,-17.43 8.46,-5.69 4.98,0.32 7.19,-10.88 0.73,-3.68 0.22,-11.38 0.17,-15.57l-108.41 2.99 0.37 16.71 44.63 -0.4c-12.44,2.09 -35.35,3.17 -44.63,9.91 1.53,3.41 6.67,9.3 12.37,7.4l-13.01 6.44 -0.09 25.3 19.89 -1.19 -2.03 23.6 -74.25 16.06 5.46 -74.87 20.06 -114.99 59.09 13.05 -7.19 30.41 41.07 -7.81c4.53,5.98 7.85,8.63 29.8,3.12 2.21,-30.4 8.19,-73.12 -3.48,-98.93z"/>
    <path class="fil1" d="M2932.31 1547.44c15.12,-79.58 -9.4,-69.83 44.8,-81.61l3.77 -0.47c11.35,-1.5 16.74,84.84 17.17,91.52l-47.4 -3.42c-4.38,4.96 -2.75,6.07 -5.53,13.32 -2.74,-6.52 -0.51,-5.84 -4.89,-11.52 -3.51,-4.55 -0.08,0.01 -4.24,-4.1l-3.68 -3.71zm-14.88 -146.9c0.15,-3.46 0.2,-4.45 -0.3,-7.85 -0.96,-6.58 -0.35,-3.76 -2.47,-7.26l-6.29 14.38c-7.98,40.43 -38.71,228.23 -43.3,233.25 -7.01,3.6 -2.37,2.31 -12.12,1.87 -3.47,-0.16 -9.22,-1.02 -12.9,-1.44 -2.14,-0.24 -12.59,-1.36 -14.09,-1.29l-10.29 2.58c-0.5,-0.74 -1.67,0.7 -2.39,1.23 2.69,14.47 -1.74,10.32 13.72,11.45 -10.99,7.14 -6.75,-0.02 -9.94,10.59l51.88 1.01c-9.69,0.59 -18.88,1.86 -27.09,2.42 -22.65,1.53 -19.48,0.5 -22.51,7.75 3.92,8.11 -0.34,3.42 7.05,6.36 1.55,0.62 8.6,0.95 10.54,0.95l68.76 -1.22 -1.03 -82.6 58.2 -1.04 -2.95 109.12 27.4 -1.91 -2.67 -109.89c5.38,23.12 5.24,90.81 8.59,104.14l10.02 3.65c2.71,-4.03 0.97,0.61 2.22,-5.94l0.06 -19.77c1.57,2.57 0.77,0.42 2.93,6.08 1.81,4.75 0.44,1.58 1.98,6.58 2.32,7.56 -0.16,3.92 3.9,11.29l27.04 -1.86c4.46,-26.8 -17.43,-206.03 -17.75,-258.35l33.78 1.41c0.21,-18.71 3.46,-12.67 -8.5,-19.94l9.87 -4.47c-1.78,-12.47 0.97,-12.7 1.25,-25.79 -19.48,-0.21 -89.34,-1.62 -106.15,1.09 -18.18,2.94 -10.12,-1.74 -28.95,-1.47l-13.03 62.69 5.55 -47.79z"/>
    <path class="fil1" d="M2412.79 1562.39l9.72 -77.99c31.66,-3.15 20.17,-0.75 37.29,-8.94l2.43 -17.81c4.84,35.74 15.36,72.45 16.25,111.91l-50.98 -4.22 -14.72 -2.96zm-25.67 -63.55c2.77,-16.24 14.85,-89.83 9.95,-101.21 -7.81,3.43 -4.43,-1.99 -7.65,12.45l-20.2 112.29c-3.83,21.36 -17.94,113.39 -24.76,125.25l-50.55 -3.99c1.2,15.75 1.23,12.33 11.81,17.3 -9.43,5.87 -4.71,-0.58 -8.09,8.38l40.48 3.87c-11.81,0.39 -28.95,-1.15 -38.31,4.36 1.66,12.81 -1.17,10.88 13.86,11.23l72.86 -1.4 -1.02 -82.48 58.09 -1.08 -1.85 109.35 26.63 -3.31 -2.61 -78.48c5.61,10.1 5.25,30.79 5.84,43.39 1.85,39.36 -3.59,33.48 11.29,34.03 3.95,-5.01 1.19,0.89 3,-6.65l1.15 -25.44 5.9 29.29c10.44,2.27 22.12,0.49 30.73,-3.6l-19.2 -255.27 33.89 1.37c0.09,-10.56 -2.88,-16.89 -2.98,-18.42 -0.5,-7.12 3.09,-5.43 2.99,-12.05l-24.89 -3.09c7.58,-1.35 -2.38,0.01 5.45,-0.68 23.79,-2.09 22.31,3.78 21.96,-16.4 -23,0.17 -46.06,-0.02 -69.07,-0.15 -12.21,-0.07 -23.55,-0.72 -35.46,1.09 -20.22,3.07 -9.67,-0.78 -28.2,-1.47l-21.02 101.51z"/>
    <path class="fil1" d="M1171.47 1450.55c-0.38,-8.15 -0.84,-16.28 -1.55,-24.41l-3.32 -15.8c-4.45,-10.53 -122.7,-29.73 -126.73,-29.44l-11.29 15.58c17.7,3.26 54.54,13.03 69.96,14.01 -17.13,-0.37 -69.12,-13.3 -81.89,-4.22 3.54,12.02 6.31,2.08 24.46,10.98l-32.03 -2.92c-6.6,12.23 -15.04,19.43 -22.13,32.27 -10.81,19.58 11.76,95.77 13.6,143.5l-25.25 -121.86c-11.95,17.15 -5.51,31.98 -2.05,54.71 4.46,29.3 23.09,144.49 31.52,159.25l24.08 2.15 -3.59 -28.85 9.98 28.52c10.89,6.07 81.06,14.05 96.88,12.29 13.38,-23.79 33.81,-65.57 35.61,-95.86 -13.96,-0.36 -10.39,2.51 -12.8,2.87 -3.5,0.52 -2.9,0.17 -4.37,-0.15 -8.42,-1.84 -14.94,-6.55 -30.35,-1.52l-3.39 44.75c-0.38,-56.41 -4.2,-46.85 -19.44,-46.91l2.86 46.47 -39.9 9.7c-4.27,-63.83 -12.12,-118.55 -10.89,-185.44l65.63 -12.66 -8.56 53.77c39.83,-4.81 39.19,-10.48 43.06,-11.52 8.12,-2.17 -0.45,1.75 8.86,1.46l2.61 -34.08c1.64,9.06 -0.44,28.25 7.07,32.57 7.11,-10.37 4.03,-34.84 3.36,-49.22z"/>
    <path class="fil1" d="M2025.39 1860.93c-19.01,-30.95 -48.02,-98.21 -65.84,-124.51l-63.27 -0.8c-0.16,19.77 -1.59,13.6 17.7,15.88 -7.46,4.55 -5.64,3.09 -16.79,4.31l-1.34 28.93 39.48 -5.31c-0.06,19.76 1.68,15.42 10.15,28.19 -1.87,0.78 -5.82,-3.21 -11.1,0 -0.86,35.01 18.5,37.5 31.39,61.27 -12.53,-7.9 -19.6,-24 -32.6,-30.09 -1.35,29.11 -2.38,59.59 -3.54,87.94 -0.55,13.33 -5.54,77.09 -0.33,86.48 11.69,-1.08 8.77,1.14 11.52,-9.63l2.35 3.53c0.35,0.37 0.91,1.14 1.33,1.5 6.75,5.7 2.63,3.41 10.77,3.26l0.82 -20.18 5.57 16.34c4.24,6.22 0.53,3.97 13.14,3.59l-7.72 -103.12c18.87,11.17 27.69,37.17 44.2,46.83 -0.53,10.67 -5.65,-14.85 9.23,4.1 4.28,5.45 8.82,12.91 12.69,18.34 6.99,9.82 16.63,25.41 26.18,33.47l5.77 -13.24c0.74,-3.17 0.88,-7.38 1.26,-10.11 0.53,21.09 -4.71,38.72 11.48,46.72l31.42 -274.41 -35.52 0.96c-1.78,27.48 -7.69,121.68 -14.03,138.72 -0.29,-22.87 8.87,-130.35 2.4,-138.93 -10.97,2.32 -7.51,1.28 -8.46,14.95 -0.52,-0.73 -0.98,-1.75 -1.27,-2.37l-4.13 -12.2 -15.21 1.08 -1.36 107.1 -6.32 -8.59z"/>
    <path class="fil1" d="M1472.61 1832.55c-1.41,-29.62 0.84,-50.81 3.79,-79.43 13.39,0.73 32.06,11.58 36.98,19.31 7.38,11.58 -0.68,24 -3.07,34.65 -1.38,6.14 -0.26,-0.95 -0.79,6.32l21.95 6.19 12.78 -28.92c-0.35,6.88 -1.88,12.3 -2.27,17.87 -0.92,12.88 1.38,11.5 3.51,13.99l8.95 -19.61c-0.35,21.18 -4.76,17.39 3.93,21.56 8.23,-3.32 3.05,6.34 7.45,-9.43l1.24 -46.72c-14.79,-9.81 -29.34,-24.57 -46.96,-35.94 -17.72,-11.45 -44.23,2.39 -64.34,6.37l-0.96 59.82 -4.78 -56.97 -23.3 6.94c-6.97,1.68 -14.36,4.59 -21.36,6.61l-4.19 91.22c11.95,3.29 24.56,8.65 36.48,13.28 30.39,11.81 19.64,8.35 32.19,3.63 6.7,8.45 36.95,28.41 49.43,32.75 -1.41,25.9 -15.67,59.99 -22.86,85.11l-51.95 9.55c1.21,-18.44 2.05,-43.05 9.19,-57.72 7.11,7.53 5.51,12.23 10.62,21.71 13.02,-3.13 19.36,-6.52 18.99,-20.88 8.13,7.88 10.96,6.19 19.06,-1.6 -4.37,-16.8 -17.62,-28.02 -26.01,-39.65 -16.39,1.51 -44.01,12.27 -57.58,19.25l-1.85 24.77c-5.06,-7.9 -3.46,-11.57 -4.99,-21.06 -13.21,4.55 -12.81,2.26 -12.29,19.18 0.51,16.43 7.03,63.2 12.08,76.57 24.09,4.68 66.25,2.43 91.54,1.29l14.47 -38.59 -7.48 35.74 7.18 -0.47c5,0.25 1.22,2.47 13.08,2.4 3.61,-7.1 20,-62.74 22.07,-72.11l-14.23 71.75 20.07 -1.73c9.03,-14.32 12.37,-43.05 15.39,-62.41 8.68,-55.58 2.4,-35.82 -10.06,-60.13l16.26 11.06 1.86 -22.12c-27.51,-8.7 -40.87,-27.58 -109.22,-43.37z"/>
    <path class="fil1" d="M1049.48 1829.6c-1.61,-19.08 -1.87,-65.17 5.14,-80.01 17.12,1.41 39.48,13.67 37.93,32.44 -2.08,25.23 -24.48,36.16 15.23,33.74l13.49 -28.12 -4.03 31.05c9.99,-3.67 6.03,-0.71 9.49,-12.38l1.49 4.93c11.83,31.79 15.7,-13.15 16.24,-23.02 1.41,-26.06 -8.31,-30.33 -23.27,-41.75 -6.04,-4.62 -29.69,-23.16 -38.32,-23.27 -3.84,-0.05 -44.87,10.27 -50.51,12.43l-1.46 60c0.22,-8.91 -1.14,-19.97 -1.78,-29.6 -0.32,-4.77 -0.45,-10.21 -1.09,-14.85 -0.27,-1.98 -0.8,-4.89 -1.32,-6.82 -1.9,-7.1 -0.74,-3.49 -2.54,-6.3 -18.46,4.42 1.6,4.19 -19.07,6.62 -8.38,0.99 -12.12,3.29 -21.07,6.1 -5.24,17.34 -7.54,70.44 -6.72,91.04l64.51 19.41c3.39,-3.21 -2.24,-0.46 2.62,-1.93 11.4,12.04 32.07,20.68 50.86,34.09 -0.45,20.7 -14.96,66.59 -23.95,84.42l-50.37 9.36c0.73,-14.33 3.13,-46.21 8.72,-57.13 6.84,4.92 2.47,-0.15 6.58,9.5 2.02,4.75 1.47,6.25 4.49,11.73 11.22,-3.52 19.07,-6.25 19.13,-20.91 9.45,8.23 6.72,7.37 18.73,-0.99 -1.45,-14.77 -20.54,-39.6 -31.95,-40.01 -7.67,-0.28 -45.81,15.84 -51.45,19.31l-2.78 34.35c-2.27,-5.62 -2.12,-8.24 -2.83,-14.36l-4.21 -16.06c-12.5,5.37 -10.26,4 -9.02,22.22 1.39,20.54 6.02,57.11 12.64,74.49l90.29 -0.27 14.65 -38.16 -3.78 33.57c0.51,0.04 2.28,0.03 2.8,0.09l2.28 0.27c6.75,1.68 -5.26,3.51 10.59,3.14 4.48,-5.45 22.18,-63.48 23.17,-71.32l-14.21 70.6c23.21,-0.46 22.99,8.9 34.03,-55.43 12.16,-70.85 2.1,-44.13 -8.4,-68.37l16.52 10.58 0.29 -19.99c-22.32,-15.41 -73.56,-40.54 -107.78,-44.45z"/>
    <path class="fil1" d="M1705.03 1470.17l32.36 -6.86c4.89,48.32 15.36,104.66 12.81,153.33 -19.23,9.68 -62.57,6.74 -86.45,2.77 -2.13,-9.75 2.28,-74.88 7.22,-77.96l3.04 0.46c3.52,-17.21 7.52,-41.2 12.99,-57 7.47,-21.58 9.42,-0.27 16.1,-20.07 1.44,-4.26 5.67,-25.85 6.16,-29.81l-4.24 35.15zm-58.21 -21.28l-24.19 9.1c-24.16,6.77 -17.35,14.08 -16.73,42.39 0.39,17.67 1.35,35.52 2.31,52.6 3.9,69.56 -0.89,76.86 28.75,85.08l8.81 -39.9c0.51,15.43 -10.95,52.21 3.55,47.39 4.93,-1.64 2.4,-1.53 4.85,-11.64 5.14,22.98 6.84,18.79 26.27,26.97 19.17,8.06 23.95,8.75 41.26,-0.46 0.2,-4.02 0.9,3.16 -2.16,-2.53 -4.74,-8.8 -5.34,5.69 -0.61,-2.74 24.78,1.07 28.24,-1.47 49.04,-8.67l5.11 -3.93c8.73,1.14 16.82,-2.33 23.44,-6.54 8.12,-21.76 15.25,-65.6 19.87,-90.54 11.99,-64.75 7.25,-45.05 -24.56,-77.26l-0.93 9.3c-10.04,-13.58 -48.2,-58.09 -72.33,-52.4 -95.3,22.48 -56.06,27.59 -75.33,53.05l3.6 -29.28z"/>
    <path class="fil1" d="M2349.16 1749.48l-0.65 -10.06 -228.39 -2.18 0.35 15.02c0.59,0.38 1.46,0.72 1.9,0.88 0.45,0.17 1.39,0.64 1.97,0.82l4.36 1.27c2.92,0.66 7.01,0.8 10.08,1.1 -11.01,2.28 -16.61,-0.87 -18.34,7.59 -2.61,12.76 2.98,6.12 5.37,7.36l9.72 3.22c0.47,-0.71 1.72,0.4 2.44,0.68l-17.88 1.61 0.88 26.11 9.08 6c-2.72,0.99 -3.35,1.14 -6.1,2.28l-3.84 17.66 58.91 -1.78 -14.13 188.61 19.24 -0.62 4.25 -71.21 2.22 70.59 17.21 -0.58 2.7 -24.89c1.3,24.3 3.76,26.13 12.16,24.07 7.31,-4.89 4.47,-0.63 5.1,-14.15 1,-21.22 -1.55,-109.74 5.18,-123.16l3.38 136.67 17.23 -0.54 -2.39 -230.36 98.58 3.3 -1.37 -28.27 -53.98 -3.24 54.73 -3.82z"/>
    <path class="fil1" d="M1354.36 1775.56c44.59,1.45 42.64,-1.18 44.07,-12.22l-91.78 -2.06 5.03 174.43 -83.3 12.87c5,-61.23 25.35,-115.14 29.35,-146.43l-14.89 0.06 -8.43 18.24c0.09,-8.36 0.85,-12.99 -2.64,-18.57l-19.37 0.13c-2.35,3.03 -0.67,-1.95 -3.98,7.32 -1.65,4.64 -1.33,5.08 -3.4,10.39l-3.69 -17.4c-6.95,2.61 -4.29,-3.68 -6.91,11.62 -2.27,13.26 -1.64,38.62 -7.4,49.84l1.41 -62.29c-21.23,-0.27 -17.12,0.37 -18.41,14.21l-1.54 52.81c-0.24,19.34 -5.32,86.34 7.82,99.86 31.75,32.65 39.37,11.76 77.86,9.09l-46.64 17.84c7.13,7.39 5.29,6.6 19.14,5.66 -8.99,9.4 -2.03,12.27 10.67,20.23 13.9,-2 34.75,-15.25 47.68,-22.18 19.82,-10.62 5.67,-0.21 19.28,-3.24 7.83,-1.74 16.45,-7.16 21.4,-11.01l1.41 -129.44 5.09 127.47 23.93 -11.84 6.6 -169.05 34.03 -1.09 -0.72 -21.78 -41.65 -3.48z"/>
    <path class="fil1" d="M1805.62 1760.27c-14.24,-0.05 -33.01,0.32 -43.32,-4.56 10.24,-0.29 37.56,3.47 43.12,-6.22 -4.02,-9.12 6.46,-4.35 -11.44,-6.7l-217.25 -2 -0.05 34.44 52.89 3.32 -53.28 2.65 0.18 25.12 25.68 2.66 -25.28 6.93 -0.48 16.86 58.67 -1.94 -13.9 188.79 18.76 -0.67c0.95,-10.47 -0.49,-24.09 5.59,-32.67l0.31 31.08 18.39 -0.4 1.64 -17.22c0.45,0.79 0.68,1.87 0.92,2.57l1.7 5.02c4.76,12.83 3.05,9.58 14.51,9.54l4.36 -183.99 6.65 182.81 15.19 -0.19 -1.36 -230.58 98.04 3.45 -0.26 -28.09z"/>
    <path class="fil1" d="M2975.95 1973.31c2.85,-39.19 27.46,-216.46 24.47,-236.7l-36.22 -0.62c-2.03,23.73 -2.19,47.6 -2.95,71.67 -0.38,12.14 0.47,60.99 -6.5,69.72l2.3 -141.7 -15.41 -0.12 -0.12 28.58 -10.24 -29.21 -18.67 0.58 -1.36 63.8c-3.72,-14.72 -1.31,-54.27 -7.65,-65.1 -8.28,10.33 1.46,189.28 1.42,218.87l-29.25 -1.54 0.71 16.61c6.58,4.66 8.74,3.6 17.15,4.72l-4.54 1.91c-0.71,0.28 -1.54,0.61 -2.29,0.91 -0.75,0.3 -1.6,0.6 -2.3,0.88 -1.53,0.6 -4.05,2.51 -4.51,1.77 -0.4,-0.64 -1.54,0.49 -2.23,0.89 3.51,7.28 -0.15,6.27 13.2,6.63l-12.62 3.34 2.24 21.17c12.17,4.59 135.65,4.23 167.23,4.09 18.55,-0.08 15.59,-3.91 16.96,-7.54 -14.13,-6.97 -43.01,-3.41 -60.9,-4.03l62.56 -4.77c-3.17,-11.98 -4.52,-3.48 -0.15,-12.85 3.62,-7.75 3.31,-12.16 4.39,-22.16l-94.72 10.2z"/>
    <path class="fil1" d="M2384.88 1836.94c21.71,-8.71 21.88,3.77 33.96,-15.6 2.68,13.94 4.11,4.59 8.55,38.89 1.94,15.01 4.19,29.95 5.66,45.38l-41.47 -2.17 -4.2 16.4c1.61,-14.92 -6.16,-18.69 -6.21,-18.77 -1.8,-2.91 -2.18,-0.01 -2.92,-7.14 -0.09,-0.85 1.08,-10.43 1.28,-11.85 2.07,-15 3.99,-29.85 5.35,-45.14zm75.96 -58.33c17.65,-6.11 16.72,3.94 23.9,-9.75 -4.14,-8.34 10.39,-7.08 -29.54,-6.6l-83.92 0.93 -12.1 61.31c0.25,-10.75 1.97,-21 3.57,-32.32 5.56,-39.32 2.65,-24.82 -3.04,-30.27 -5.42,30.93 -31.06,194.51 -40.15,209.64 -13.35,-0.12 -32.22,-4.95 -41.88,-0.63 1.53,12.93 -1.41,9.79 11.7,11.45 -10.96,6 -3.88,-1.1 -8.86,8.33l27.59 1.02c-30.33,6.25 -24.79,-4 -24.42,12.41 13.08,6.67 52.57,1.28 71.57,1.72l-1.52 -69.42 49.46 -1.19 -1.86 91.7 22.48 -2.28 -1.58 -73.58c3.59,9.33 2.99,25.67 3.96,37.47 2.09,25.5 -2.91,34.99 6.83,35.07 10.9,0.08 4.77,-3.77 6.47,-27.08 2.88,10.59 2.51,16.73 7.4,25.47l23.75 -1.64 -16.42 -216.56 28.35 0.93c0.33,-9.06 -2.27,-14.85 -2.27,-14.92 -0.37,-7.05 0.98,-1.54 3.28,-10.36l-22.76 -0.87z"/>
    <path class="fil1" d="M1864.6 1813.57c52.32,-2.78 49.09,5.25 51.59,-17.89l-183.81 3.11 0.39 18.3 31.68 3.26 -31.34 3.88c-2.06,11.49 0.2,6.61 0.37,10.08 0.05,0.92 0.36,3.36 0.35,4.23 -0.01,0.63 0,1.37 -0.05,1.99 -0.05,0.63 -0.16,1.36 -0.25,2.01 -1.17,9.02 -2.59,9.86 -2.51,21.83l30.36 -4.21 -6.33 166.02 18.81 0.06 1.17 -83.99c7.44,21.11 -2.92,66.48 7.56,84.22 6.97,-2.66 5.74,4.89 9.28,-24.21l3.78 25.05c18.59,-0.16 106.81,4.87 115.87,-1l0.95 -10.13 -60.63 -2.62c49.29,-1.28 68.21,13.22 69.99,-43.44l-100.01 11.24 1.18 -56.4 42.62 1.06c0.25,-0.61 0.11,-1.61 0.12,-1.97 0.75,-20.72 2.18,-0.07 4.3,-16.78 -6.13,-4.47 -10.85,-3.67 -19.42,-4.31l4.59 -2.17c20.33,-7.29 -16.48,3.91 4.83,-1.57 1.59,-0.41 7.87,-0.95 10.29,-1.27l-0.06 -26.39 -68.21 8.67 0.1 -39.94 82.89 2.21c28.99,1.44 21.87,-0.97 25.44,-4.42 -2.71,-12.21 -0.73,-6.11 -14.53,-10.13 13.3,-0.64 12.55,2.4 16.91,-6.47 -4.87,-7.28 -10.85,-4.62 -22.22,-4.88 -9.52,-0.22 -18.87,-0.54 -26.05,-3.01z"/>
    <path class="fil1" d="M2805.07 1781.55c14.18,-1.01 26.25,-2.04 40.6,-2.07 20.14,-0.04 19.83,2.79 22.07,-17.09l-183.32 3.66 -0.58 17.73 32.39 3.87c-36.85,1.6 -32.57,3.38 -32.02,12.93l1.07 6.37c-0.65,9.93 -4.92,8.29 -1.98,24.23l29.61 -4.17 -6.16 166.1 18.48 -0.73 3.01 -93.88 5.48 92.73c0.12,-0.37 0.58,1.38 1.02,1.97 7.37,-3.11 4.42,-5.06 9.59,-12.85l4.25 13.37c16.21,0.27 103.84,4.98 114.09,-0.62l1.52 -10.16 -60.46 -2.67c61.52,-1.41 63.78,10.54 70.17,-43.45l-100.4 11.36 0.22 -56.2 47.12 1.09c-2.05,-10.83 2.65,-4.27 -7.86,-9.68 10.7,-3.97 8.16,0.78 6.7,-12.1l-16.8 -4.54 18.65 -3.76 0.28 -24.54 -68.23 8.56 -0.08 -40.15c19.54,0.05 96.77,6.42 107.97,0.76 0.39,-14.69 1.09,-8.73 -13.23,-12.75 14.53,-1.19 14.66,2.45 15.62,-10.34l-58.79 -2.99z"/>
    <path class="fil3" d="M987.78 484.55c15.82,24.26 39.3,34.37 71.63,103.23 21.86,46.57 28.36,81.34 32.98,141.32 12.94,5.18 63.51,4.7 73.95,0.04 12.51,-33.45 -25.23,-146.6 -37.56,-172.16 -14.82,-30.7 -64.18,-111.34 -88,-124.58 -9.6,2.89 -21.06,17.99 -27.66,24.5l-25.35 27.65z"/>
    <path class="fil4" d="M730.65 381.95c58.34,2.33 93.15,7.25 142.01,27.11 53.19,21.63 97.63,62.79 108.95,65.76 12.48,-18.44 36.18,-33.97 47.91,-51.16 -6.16,-12.51 -39.34,-35.2 -55.81,-46.3 -68.24,-45.95 -155.21,-72.08 -242.84,-70.68l-0.21 75.27z"/>
    <path class="fil2" d="M430.69 1040.91c4.49,8.38 17.91,19.93 25.2,25.77 9.69,7.76 17.22,14.17 29.62,22.97 62.16,44.09 153.45,81.8 234.24,79.44l0.02 -75.06c-71.6,-3.55 -134.63,-26.58 -189.84,-65.66 -10.04,-7.11 -16.18,-11.86 -23.23,-18.04 -8.6,-7.54 -14.22,-14.93 -25.04,-20.93 -0.64,0.45 -1.55,0.41 -1.84,1.44 -0.29,1.01 -1.4,1.1 -1.79,1.44 -10.55,9.49 4.83,-4.9 -3.23,2.93l-19.54 19.31c-8.59,8.41 -18.26,16.11 -24.57,26.39z"/>
    <path class="fil2" d="M431.68 431.48c3.48,11.53 43.84,49.99 52.75,54.23 36.7,-27.2 43.74,-43.6 100.36,-69.68 42.04,-19.36 84.73,-30.48 134.75,-33.58l0.36 -75.67c-134.3,7.14 -212.25,57.88 -288.21,124.71z"/>
    <path class="fil3" d="M420.77 1030.73c9,-3.97 46.35,-40.71 51.36,-50.71 -6.81,-16.75 -39.34,-44.51 -63.22,-101.89 -11.11,-26.69 -35.81,-102.29 -26.19,-133.87 -14.25,-3.69 -61.6,-2.64 -77.84,-1.35 -2.87,83.28 29.43,165.46 69.55,230.94 9.51,15.52 33.45,49.77 46.34,56.89z"/>
    <path class="fil4" d="M304.28 730.96l76.73 0.29c0.9,-52.01 11.87,-95.63 29.14,-135.6 26.62,-61.61 46.34,-70.43 64.12,-100.02 -6.16,-9.72 -42.98,-47.91 -53.5,-50.72 -28.56,22.16 -64.56,86.52 -80.09,120.32 -22.9,49.83 -32.2,102.67 -36.4,165.73z"/>
    <path class="fil3" d="M927.71 542.68c3.43,11.32 32.59,35.71 53.14,79.1 29.01,61.25 18.24,82.23 28.08,107.42l73.65 2.16c3.69,-61.46 -26.91,-144.11 -62.52,-192.88 -9.38,-12.85 -28.54,-38.34 -40.18,-45.77 -9.76,4.42 -45.06,40.51 -52.18,49.96z"/>
    <path class="fil2" d="M730.67 467.6c42.58,1.58 71.92,5.54 106.05,19.05 46.7,18.49 54.02,33.27 79.5,48.35l54.59 -50.89c-16.59,-21.94 -72.02,-54.42 -99.48,-65.55 -41.15,-16.69 -89.01,-29.15 -140.77,-26.39l0.11 75.42z"/>
    <path class="fil4" d="M490.67 982.78c41.21,45.81 139.16,102.02 228.48,101.81l0.64 -76.33c-53.27,-3.46 -101.1,-20.9 -141.28,-50.31 -12.68,-9.28 -25.14,-21.88 -35.96,-28.65 -8.25,5.09 -49.3,44.81 -51.88,53.48z"/>
    <path class="fil3" d="M492.23 492.86c5.27,13.55 38.4,41.02 48.78,53.68 11.43,-3.74 10.5,-5.86 19.34,-13.66 43.67,-38.52 99.37,-59.08 159.46,-64.92l0.1 -74.94c-81.96,-3.93 -189.65,54.81 -227.69,99.84z"/>
    <path class="fil3" d="M481.66 970.54c6.07,-3.01 50.79,-45.36 50.87,-51.42 -3.16,-9.18 -17.73,-25.15 -23.97,-35.07 -8.68,-13.79 -14.96,-25.91 -21.06,-39.84 -13.25,-30.21 -19.72,-61.76 -21.03,-100.56l-75.67 -1.59c-4.26,45.15 12.4,95.92 26.17,130.99 8.85,22.54 45.46,87.68 64.69,97.48z"/>
    <path class="fil4" d="M390.11 731.6c19.79,0 59.48,2.91 76.54,-1.98 0.38,-56.52 21.8,-112.26 54.75,-155.48 4.86,-6.37 9.4,-11.03 13.36,-17.62 -3.22,-6.51 0.9,-0.33 -4.57,-7l-48.52 -45.6c-20.5,17.77 -49.42,64.03 -62.77,95.11 -16.84,39.21 -28.59,83.65 -28.78,132.57z"/>
    <path class="fil1" d="M2792.88 1698.21c0.39,-0.69 0.8,-1.62 1.01,-2.15 0.21,-0.52 0.71,-1.49 0.94,-2.14 5.08,-14.01 -1.03,5.06 1.48,-4.37 0.75,-2.8 0.8,-4.01 1.23,-7.05l5.79 -47.01c5.72,-45.92 2.08,-31.89 3.71,-60.06 2.07,-35.8 18.46,-82.68 17.86,-118.37l-23.54 0 -5.87 14.74 -5.36 -14.51 -38.45 0.03 -1.29 29.83c-4.88,-10.45 -0.24,-17.85 -4.52,-28.48l-15.6 -0.65 11.71 234.86 16.7 0.23c0.27,-10.73 0.65,-21.47 0.88,-32.19 0.11,-4.9 -0.71,-25.64 3.8,-28.08l3.09 62.83 26.46 2.55z"/>
    <path class="fil3" d="M872.52 598.04c2.21,6.13 24,26.96 38.14,55.65 13,26.38 16.72,44.07 19.61,76.84l66.63 0.93c2.91,-64.79 -38.49,-146.72 -77.91,-179.46 -10.7,7.98 -38.91,36.65 -46.48,46.04z"/>
    <path class="fil4" d="M730.89 544.98c37.7,-1.03 75.3,8.55 105.93,27.26 9.27,5.67 17.78,14.39 26.82,17.48 11.25,-7.94 41.39,-37.7 45.51,-48.78 -51.43,-35.79 -102.79,-68.72 -178.7,-63.05l0.43 67.08z"/>
    <path class="fil4" d="M550.95 921.89c35.34,37.85 99.4,74.57 168.39,76.97l0.14 -67.95c-71.97,-5.13 -91.94,-36.53 -121.56,-56.13 -8.44,3.75 -42.05,36.69 -46.97,47.11z"/>
    <path class="fil3" d="M552.57 558.12c13.3,10.61 36.69,37.21 45.35,42.29 6.7,-2.62 17.37,-13.01 23.42,-17.58 8.74,-6.6 15.93,-11.37 27.53,-17.17 23.75,-11.87 38.82,-16.5 68.91,-19.4 4.51,-13.7 2.34,-51.1 1.85,-67.37 -36.87,-1.18 -69.62,12.19 -97.22,24.48 -18.77,8.36 -62.53,32.63 -69.84,54.74z"/>
    <path class="fil2" d="M542.56 910.89l44.82 -43.52c-3.52,-14.61 -20.29,-31.46 -29.68,-54.62 -9.95,-24.56 -12.59,-41.22 -15.32,-70.22l-66.28 -0.25c-3.38,56.97 36.65,152.63 66.45,168.61z"/>
    <path class="fil4" d="M475.79 731.37l67.08 -0.11c3.99,-77.81 41.96,-103.78 46.16,-122.15 -8.39,-9.87 -36.69,-40.52 -47.72,-45.19 -36.51,44.64 -63.99,95.67 -65.52,167.44z"/>
    <path class="fil1" d="M2392.12 1749.53c6.82,-8.65 11.67,-11.81 19.87,-18.34 3.75,-2.99 16.47,-13.49 19.55,-16.9 4.02,-4.44 8.53,-3.15 2.59,-12.56 -5.31,-8.4 -2.53,-3.04 -10.31,-4.25l-3.69 -0.46c-9.4,-1.69 -10.52,-6.87 -17.52,6.33 -5.97,-9.55 -1.38,-6.56 -8.31,-8.97 -7,6.18 -25.32,34.57 -28.63,46.81 7.8,5.01 14.97,7.95 26.46,8.34z"/>
   </g>
  </g>
 </g>
</svg>
